{
  "schemaVersion": 1,
  "id": "fabricproxy-better",
  "version": "${version}",

  "name": "FabricProxy Better",
  "description": "Support forward player data from proxy",
  "authors": [
    "james58899",
    "jneos"
  ],
  "contact": {
    "homepage": "https://gitlab.com/superfunnygroup/fabricproxy-better",
    "sources": "https://gitlab.com/superfunnygroup/fabricproxy-better"
  },

  "license": "MIT",

  "environment": "server",
  "entrypoints": {
    "server": [
      "one.oktw.FabricProxyLite"
    ]
  },
  "mixins": [
    "core.mixins.json",
    "hack.mixins.json"
  ],

  "depends": {
    "fabricloader": ">=0.7.4",
    "fabric-networking-api-v1": "*"
  }
}
